{
    "updateInfo":{
        "appName": "Kanase Survey",
        "appDescription": "Kanase Survey App",
        "packageName": "com.sbintell.kanasesurvey",
        "versionCode": "9",
        "versionName": "1.8",
        "forceUpdate": false,
        "autoUpdate": true,
        "apkUrl": "https://bitbucket.org/nemesisfixx/mminds-data-binaries/raw/master/Kanase.apk",
	"message": "auto set input types for numeric fields"
    }
}

